[
    {
        "model": "auth.user",
        "pk": 2,
        "fields": {
            "password": "pbkdf2_sha256$150000$vhXKQf1Chn0O$pdkG27i5P4xYsPvOBJtsEhjCXFMdMfAate68G9XocaY=",
            "last_login": "2019-06-01 00:00:00.000000",
            "is_superuser": false,
            "username": "administrador",
            "email": "administrador@gmail.com",
            "is_staff": true,
            "is_active": true,
            "date_joined": "2019-06-01 00:00:00.000000"
        }
    },
    {
        "model": "auth.user",
        "pk": 3,
        "fields": {
            "password": "pbkdf2_sha256$150000$vhXKQf1Chn0O$pdkG27i5P4xYsPvOBJtsEhjCXFMdMfAate68G9XocaY=",
            "last_login": "2019-06-01 00:00:00.000000",
            "is_superuser": false,
            "username": "basico",
            "email": "basico@gmail.com",
            "is_staff": false,
            "is_active": true,
            "date_joined": "2019-06-01 00:00:00.000000"
        }
    },
    {
        "model": "auth.user",
        "pk": 4,
        "fields": {
            "password": "pbkdf2_sha256$150000$vhXKQf1Chn0O$pdkG27i5P4xYsPvOBJtsEhjCXFMdMfAate68G9XocaY=",
            "last_login": "2019-06-01 00:00:00.000000",
            "is_superuser": false,
            "username": "vacio",
            "email": "vacio@gmail.com",
            "is_staff": false,
            "is_active": true,
            "date_joined": "2019-06-01 00:00:00.000000"
        }
    },
    {
        "model": "auth.user",
        "pk": 5,
        "fields": {
            "password": "pbkdf2_sha256$150000$vhXKQf1Chn0O$pdkG27i5P4xYsPvOBJtsEhjCXFMdMfAate68G9XocaY=",
            "last_login": "2019-06-01 00:00:00.000000",
            "is_superuser": false,
            "username": "usuario",
            "email": "usuario@gmail.com",
            "is_staff": false,
            "is_active": true,
            "date_joined": "2019-06-01 00:00:00.000000"
        }
    }
]